<svg xmlns:dc="http://purl.org/dc/elements/1.1/" xmlns:cc="http://creativecommons.org/ns#" xmlns:rdf="http://www.w3.org/1999/02/22-rdf-syntax-ns#" xmlns:svg="http://www.w3.org/2000/svg" xmlns="http://www.w3.org/2000/svg" version="1.1" width="17" height="18">
<defs/>
  <g>
     <ellipse cx="9" cy="9" rx="3" ry="3" fill="#000000" pointer-events="all" />
  </g>
  <metadata>
    <rdf:RDF>
      <cc:Work rdf:about="">
        <dc:title/>
      </cc:Work>
    </rdf:RDF>
  </metadata>
</svg>
