<svg xmlns:dc="http://purl.org/dc/elements/1.1/" xmlns:cc="http://creativecommons.org/ns#" xmlns:rdf="http://www.w3.org/1999/02/22-rdf-syntax-ns#" xmlns:svg="http://www.w3.org/2000/svg" xmlns="http://www.w3.org/2000/svg" version="1.1" width="18" height="18">
<defs/>
  <g>
      <rect width="9" height="1" x="5" y="8" fill="#808080"/>
  </g>
  <metadata>
    <rdf:RDF>
      <cc:Work rdf:about="">
        <dc:title/>
      </cc:Work>
    </rdf:RDF>
  </metadata>
</svg>
